{
    "info":
    {
        "copyright": "Copyright 2018-2019 Open Connectivity Foundation, Inc. All rights reserved.",
        "license": "BSD-3-Clause",
        "title": "Activity",
        "version": "2019-03-04"
    },
    "namespace":
    {
        "ocf": "https://onedm.org/ecosystem/ocf"
    },
    "defaultNamespace": "ocf",
    "uuid": "6e950b8f-ec9a-43a2-bf27-adbf4db020ce",
    "sensor":
    {
        "description": "This Property describes the recognized current activity type of user",
        "type": "string",
        "enum":
        [
            "sleep",
            "sit",
            "stand",
            "walk",
            "run",
            "unknown"
        ],
        "writable": false,
        "uuid": "5ba85968-140d-4449-bffc-576720f2d845",
        "name": "activity",
        "parent_description": "This Resource describes the Properties associated with a person's physical activity. All Properties are read-only values that are provided by the server. When range (from \"oic. r. baseresource\") is omitted the default is 0 to +MAXFLOAT."
    }
}