{
    "info":
    {
        "copyright": "Copyright 2018-2019 Open Connectivity Foundation, Inc. All rights reserved.",
        "license": "BSD-3-Clause",
        "title": "Activity",
        "version": "2019-03-04"
    },
    "namespace":
    {
        "ocf": "https://onedm.org/ecosystem/ocf"
    },
    "defaultNamespace": "ocf",
    "uuid": "6e950b8f-ec9a-43a2-bf27-adbf4db020ce",
    "sensor":
    {
        "type": "array",
        "description": "The valid range for the Property in the Resource as an integer. The first value in the array is the minimum value, the second value in the array is the maximum value.",
        "writable": false,
        "minItems": 2,
        "maxItems": 2,
        "items":
        {
            "type": "integer"
        },
        "uuid": "5baa97b3-3701-4ea5-8df2-92bfb70ba014",
        "name": "steps_reset_range",
        "parent_description": "This Resource describes the Properties associated with a person's physical activity. All Properties are read-only values that are provided by the server. When range (from \"oic. r. baseresource\") is omitted the default is 0 to +MAXFLOAT."
    }
}