{
    "info":
    {
        "copyright": "Copyright 2018-2019 Open Connectivity Foundation, Inc. All rights reserved.",
        "license": "BSD-3-Clause",
        "title": "Activity",
        "version": "2019-03-04"
    },
    "namespace":
    {
        "ocf": "https://onedm.org/ecosystem/ocf"
    },
    "defaultNamespace": "ocf",
    "uuid": "6e950b8f-ec9a-43a2-bf27-adbf4db020ce",
    "sensor":
    {
        "type": "number",
        "writable": false,
        "description": "When exposed the value in 'precision' provides a +/- tolerance against the Properties in the Resource. Thus if a Property is UPDATED to a value and that Property then RETRIEVED, the RETRIEVED value is valid if in the range of the set value +/- precision",
        "uuid": "680e6709-9382-4fef-b5ed-ac062d069f8b",
        "name": "ccal_day_precision",
        "parent_description": "This Resource describes the Properties associated with a person's physical activity. All Properties are read-only values that are provided by the server. When range (from \"oic. r. baseresource\") is omitted the default is 0 to +MAXFLOAT."
    }
}