{
    "name": "Unicorn",
    "@context": "https://w3c.github.io/wot/w3c-wot-td-context.jsonld",
    "@type": "Thing",
    "security":
    [],
    "actions":
    {
        "gradient":
        {
            "input":
            {
                "type": "array",
                "items":
                {
                    "type": "object",
                    "properties":
                    {
                        "r":
                        {
                            "type": "integer",
                            "minimum": 0,
                            "maximum": 255
                        },
                        "g":
                        {
                            "type": "integer",
                            "minimum": 0,
                            "maximum": 255
                        },
                        "b":
                        {
                            "type": "integer",
                            "minimum": 0,
                            "maximum": 255
                        }
                    }
                },
                "minItems": 2
            },
            "forms":
            [
                {
                    "href": "http://192.168.1.23:8080/Unicorn/actions/gradient",
                    "mediaType": "application/json"
                },
                {
                    "href": "coap://192.168.1.23:5683/Unicorn/actions/gradient",
                    "mediaType": "application/json"
                }
            ]
        },
        "forceColor":
        {
            "input":
            {
                "type": "object",
                "properties":
                {
                    "r":
                    {
                        "type": "integer",
                        "minimum": 0,
                        "maximum": 255
                    },
                    "g":
                    {
                        "type": "integer",
                        "minimum": 0,
                        "maximum": 255
                    },
                    "b":
                    {
                        "type": "integer",
                        "minimum": 0,
                        "maximum": 255
                    }
                }
            },
            "forms":
            [
                {
                    "href": "http://192.168.1.23:8080/Unicorn/actions/forceColor",
                    "mediaType": "application/json"
                },
                {
                    "href": "coap://192.168.1.23:5683/Unicorn/actions/forceColor",
                    "mediaType": "application/json"
                }
            ]
        },
        "cancel":
        {
            "forms":
            [
                {
                    "href": "http://192.168.1.23:8080/Unicorn/actions/cancel",
                    "mediaType": "application/json"
                },
                {
                    "href": "coap://192.168.1.23:5683/Unicorn/actions/cancel",
                    "mediaType": "application/json"
                }
            ]
        }
    },
    "events":
    {},
    "links":
    [],
    "uuid": "ece8426a-add1-4f6e-a774-797918de03f5",
    "sensor":
    {
        "type": "integer",
        "minimum": 0,
        "maximum": 255,
        "writable": true,
        "forms":
        [
            {
                "href": "http://192.168.1.23:8080/Unicorn/properties/brightness",
                "mediaType": "application/json"
            },
            {
                "href": "coap://192.168.1.23:5683/Unicorn/properties/brightness",
                "mediaType": "application/json"
            }
        ],
        "uuid": "8387776a-6a28-4586-9a6a-53367ab7477c"
    }
}