{
    "title": "Virtual Dimmable Color Light",
    "@context": "https://www.w3.org/2022/wot/td/v1.1",
    "@type":
    [
        "OnOffSwitch",
        "Light",
        "ColorControl"
    ],
    "description": "",
    "href": "/things/virtual-things-2",
    "actions":
    {},
    "events":
    {},
    "links":
    [
        {
            "rel": "alternate",
            "type": "text/html",
            "href": "/things/virtual-things-2"
        },
        {
            "rel": "alternate",
            "href": "wss://plugfest.webthings.io/things/virtual-things-2"
        }
    ],
    "forms":
    [
        {
            "href": "/things/virtual-things-2/properties",
            "op":
            [
                "readallproperties",
                "writemultipleproperties"
            ]
        }
    ],
    "layoutIndex": 3,
    "selectedCapability": "Light",
    "iconHref": null,
    "group_id": null,
    "base": "https://plugfest.webthings.io/",
    "securityDefinitions":
    {
        "oauth2_sc":
        {
            "scheme": "oauth2",
            "flow": "code",
            "authorization": "https://plugfest.webthings.io/oauth/authorize",
            "token": "https://plugfest.webthings.io/oauth/token",
            "scopes":
            [
                "/things/virtual-things-2:readwrite",
                "/things/virtual-things-2",
                "/things:readwrite",
                "/things"
            ]
        }
    },
    "security": "oauth2_sc",
    "uuid": "e67fce45-ec62-489f-84d2-eaa07c90a926",
    "sensor":
    {
        "name": "colorTemperature",
        "value": 2500,
        "title": "Color Temperature",
        "type": "number",
        "@type": "ColorTemperatureProperty",
        "unit": "kelvin",
        "minimum": 2500,
        "maximum": 9000,
        "forms":
        [
            {
                "href": "/things/virtual-things-2/properties/colorTemperature"
            }
        ],
        "uuid": "cd1d7506-48ab-470f-80e8-4b497353730f"
    }
}