{
    "info":
    {
        "copyright": "Copyright 2016-2019 Open Connectivity Foundation, Inc. All rights reserved.",
        "license": "BSD-3-Clause",
        "title": "Exercise for Glucose Meter",
        "version": "2019-03-22"
    },
    "namespace":
    {
        "ocf": "https://onedm.org/ecosystem/ocf"
    },
    "defaultNamespace": "ocf",
    "uuid": "742df94f-16ea-4096-a4aa-d2c8410e22df",
    "sensor":
    {
        "type": "number",
        "writable": false,
        "description": "When exposed the value in 'precision' provides a +/- tolerance against the Properties in the Resource. Thus if a Property is UPDATED to a value and that Property then RETRIEVED, the RETRIEVED value is valid if in the range of the set value +/- precision",
        "uuid": "056631f4-7c67-4eec-a092-8665759caedc",
        "name": "precision",
        "parent_description": "This Resource describes the Properties associated with glucose exercise. The exercise Property has a default unit of percentage. The exercise Property is a read-only value that is provided by the Server."
    }
}