{
    "info":
    {
        "copyright": "copyright 2016-2017, 2019 Open Connectivity Foundation, Inc. All rights reserved.",
        "license": "BSD-3-Clause",
        "title": "Grinder",
        "version": "2019-02-15"
    },
    "namespace":
    {
        "ocf": "https://onedm.org/ecosystem/ocf"
    },
    "defaultNamespace": "ocf",
    "uuid": "40996c68-e6a3-4839-babe-4b67a753e169",
    "sensor":
    {
        "description": "The percentage of unground material left.",
        "maximum": 100,
        "minimum": 0,
        "writable": false,
        "type": "integer",
        "uuid": "fda63433-aa1e-4f39-9770-4604157a297a",
        "name": "remaining",
        "parent_description": "This Resource describes the attributes associated with a grinder. The Property \"coarseness\" of the grounds is an integer. The higher the value, the less coarse. The Property \"remaining\" is a percentage that represents the unground material left."
    }
}