{
    "@context":
    [
        "https://www.w3.org/2019/wot/td/v1",
        {
            "@language": "en"
        }
    ],
    "@type": "Thing",
    "actions":
    {
        "clear":
        {
            "forms":
            [
                {
                    "contentType": "application/json",
                    "href": "https://esiremotelab.esi.ei.tum.de:8081/SenseHat3/actions/clear",
                    "htv:methodName": "POST",
                    "op":
                    [
                        "invokeaction"
                    ]
                }
            ],
            "idempotent": false,
            "safe": false
        },
        "flashMessage":
        {
            "forms":
            [
                {
                    "contentType": "application/json",
                    "href": "https://esiremotelab.esi.ei.tum.de:8081/SenseHat3/actions/flashMessage",
                    "htv:methodName": "POST",
                    "op":
                    [
                        "invokeaction"
                    ]
                }
            ],
            "idempotent": false,
            "input":
            {
                "description": "The message to show where only one letter is displayed at a time. May include the scroll speed and text/background colours.",
                "properties":
                {
                    "backColour":
                    {
                        "items":
                        {
                            "maximum": 255,
                            "minimum": 0,
                            "type": "integer"
                        },
                        "maxItems": 3,
                        "minItems": 3,
                        "type": "array"
                    },
                    "speed":
                    {
                        "type": "number"
                    },
                    "textColour":
                    {
                        "items":
                        {
                            "maximum": 255,
                            "minimum": 0,
                            "type": "integer"
                        },
                        "maxItems": 3,
                        "minItems": 3,
                        "type": "array"
                    },
                    "textString":
                    {
                        "type": "string"
                    }
                },
                "required":
                [
                    "textString"
                ],
                "type": "object"
            },
            "safe": false
        },
        "flipH":
        {
            "forms":
            [
                {
                    "contentType": "application/json",
                    "href": "https://esiremotelab.esi.ei.tum.de:8081/SenseHat3/actions/flipH",
                    "htv:methodName": "POST",
                    "op":
                    [
                        "invokeaction"
                    ]
                }
            ],
            "idempotent": false,
            "safe": false
        },
        "flipV":
        {
            "forms":
            [
                {
                    "contentType": "application/json",
                    "href": "https://esiremotelab.esi.ei.tum.de:8081/SenseHat3/actions/flipV",
                    "htv:methodName": "POST",
                    "op":
                    [
                        "invokeaction"
                    ]
                }
            ],
            "idempotent": false,
            "safe": false
        },
        "setPixel":
        {
            "forms":
            [
                {
                    "contentType": "application/json",
                    "href": "https://esiremotelab.esi.ei.tum.de:8081/SenseHat3/actions/setPixel",
                    "htv:methodName": "POST",
                    "op":
                    [
                        "invokeaction"
                    ]
                }
            ],
            "idempotent": false,
            "input":
            {
                "description": "Set the pixel in the given (x,y) coordinates to a given RGB color.",
                "properties":
                {
                    "b":
                    {
                        "maximum": 255,
                        "minimum": 0,
                        "type": "integer"
                    },
                    "g":
                    {
                        "maximum": 255,
                        "minimum": 0,
                        "type": "integer"
                    },
                    "r":
                    {
                        "maximum": 255,
                        "minimum": 0,
                        "type": "integer"
                    },
                    "x":
                    {
                        "maximum": 7,
                        "minimum": 0,
                        "type": "integer"
                    },
                    "y":
                    {
                        "maximum": 7,
                        "minimum": 0,
                        "type": "integer"
                    }
                },
                "required":
                [
                    "x",
                    "y",
                    "r",
                    "g",
                    "b"
                ],
                "type": "object"
            },
            "safe": false
        },
        "showLetter":
        {
            "forms":
            [
                {
                    "contentType": "application/json",
                    "href": "https://esiremotelab.esi.ei.tum.de:8081/SenseHat3/actions/showLetter",
                    "htv:methodName": "POST",
                    "op":
                    [
                        "invokeaction"
                    ]
                }
            ],
            "idempotent": false,
            "input":
            {
                "description": "The letter to show. May include text/background colours.",
                "properties":
                {
                    "backColour":
                    {
                        "items":
                        {
                            "maximum": 255,
                            "minimum": 0,
                            "type": "integer"
                        },
                        "maxItems": 3,
                        "minItems": 3,
                        "type": "array"
                    },
                    "letter":
                    {
                        "maxLength": 1,
                        "type": "string"
                    },
                    "textColour":
                    {
                        "items":
                        {
                            "maximum": 255,
                            "minimum": 0,
                            "type": "integer"
                        },
                        "maxItems": 3,
                        "minItems": 3,
                        "type": "array"
                    }
                },
                "required":
                [
                    "letter"
                ],
                "type": "object"
            },
            "safe": false
        },
        "showMessage":
        {
            "forms":
            [
                {
                    "contentType": "application/json",
                    "href": "https://esiremotelab.esi.ei.tum.de:8081/SenseHat3/actions/showMessage",
                    "htv:methodName": "POST",
                    "op":
                    [
                        "invokeaction"
                    ]
                }
            ],
            "idempotent": false,
            "input":
            {
                "description": "The message to show. May include the scrolling speed and text/background colours.",
                "properties":
                {
                    "backColour":
                    {
                        "items":
                        {
                            "maximum": 255,
                            "minimum": 0,
                            "type": "integer"
                        },
                        "maxItems": 3,
                        "minItems": 3,
                        "type": "array"
                    },
                    "scrollSpeed":
                    {
                        "description": "seconds paused between letters.",
                        "maximum": 1,
                        "minimum": 0,
                        "type": "number",
                        "unit": "second"
                    },
                    "textColour":
                    {
                        "items":
                        {
                            "maximum": 255,
                            "minimum": 0,
                            "type": "integer"
                        },
                        "maxItems": 3,
                        "minItems": 3,
                        "type": "array"
                    },
                    "textString":
                    {
                        "type": "string"
                    }
                },
                "required":
                [
                    "textString",
                    "scrollSpeed"
                ],
                "type": "object"
            },
            "safe": false
        }
    },
    "description": "Raspberry Pi SenseHat",
    "events":
    {
        "joystickHold":
        {
            "data":
            {
                "enum":
                [
                    "left",
                    "right",
                    "up",
                    "down",
                    "click"
                ],
                "type": "string"
            },
            "forms":
            [
                {
                    "contentType": "application/json",
                    "href": "https://esiremotelab.esi.ei.tum.de:8081/SenseHat3/events/joystickHold",
                    "op":
                    [
                        "subscribeevent"
                    ],
                    "subprotocol": "longpoll"
                }
            ]
        },
        "joystickPress":
        {
            "data":
            {
                "enum":
                [
                    "left",
                    "right",
                    "up",
                    "down",
                    "click"
                ],
                "type": "string"
            },
            "forms":
            [
                {
                    "contentType": "application/json",
                    "href": "https://esiremotelab.esi.ei.tum.de:8081/SenseHat3/events/joystickPress",
                    "op":
                    [
                        "subscribeevent"
                    ],
                    "subprotocol": "longpoll"
                }
            ]
        },
        "joystickRelease":
        {
            "data":
            {
                "enum":
                [
                    "left",
                    "right",
                    "up",
                    "down",
                    "click"
                ],
                "type": "string"
            },
            "forms":
            [
                {
                    "contentType": "application/json",
                    "href": "https://esiremotelab.esi.ei.tum.de:8081/SenseHat3/events/joystickRelease",
                    "op":
                    [
                        "subscribeevent"
                    ],
                    "subprotocol": "longpoll"
                }
            ]
        }
    },
    "forms":
    [
        {
            "contentType": "application/json",
            "href": "https://esiremotelab.esi.ei.tum.de:8081/SenseHat3/all/properties",
            "op":
            [
                "readallproperties",
                "readmultipleproperties",
                "writeallproperties",
                "writemultipleproperties"
            ]
        }
    ],
    "security": "basic_sc",
    "securityDefinitions":
    {
        "basic_sc":
        {
            "in": "header",
            "scheme": "basic"
        }
    },
    "title": "SenseHat3",
    "uuid": "9b041bbf-7f3e-4eaa-8602-5d7390135c9f",
    "sensor":
    {
        "description": "Get 3 Floats representing the rotational intensity of each axis in rads/second.",
        "forms":
        [
            {
                "contentType": "application/json",
                "href": "https://esiremotelab.esi.ei.tum.de:8081/SenseHat3/properties/gyro",
                "htv:methodName": "GET",
                "op":
                [
                    "readproperty"
                ]
            },
            {
                "contentType": "application/json",
                "href": "https://esiremotelab.esi.ei.tum.de:8081/SenseHat3/properties/gyro/observable",
                "op":
                [
                    "observeproperty"
                ],
                "subprotocol": "longpoll"
            }
        ],
        "observable": true,
        "properties":
        {
            "x":
            {
                "type": "number"
            },
            "y":
            {
                "type": "number"
            },
            "z":
            {
                "type": "number"
            }
        },
        "readOnly": true,
        "type": "object",
        "writeOnly": false,
        "uuid": "046bbae5-8512-47e5-926a-bd9184ad146e"
    }
}