{
    "info":
    {
        "title": "OMA LwM2M Illuminance (Object ID 3301)",
        "version": "2022-02-21",
        "copyright": "Copyright 2019 Open Mobile Alliance.",
        "license": "BSD-3-Clause"
    },
    "namespace":
    {
        "oma": "https://onedm.org/ecosystem/oma"
    },
    "defaultNamespace": "oma",
    "uuid": "fd345bcf-553b-4aff-a154-102630755980",
    "sensor":
    {
        "label": "Max Measured Value",
        "description": "The maximum value measured by the sensor since power ON or reset.",
        "writable": false,
        "type": "number",
        "uuid": "bad43b9e-bed7-4874-9c04-a3e008fafb5d",
        "name": "Max_Measured_Value",
        "parent_description": "Illuminance sensor, example units = lx"
    }
}