{
    "@context":
    [
        "https://www.w3.org/2019/wot/td/v1",
        {
            "@language": "en"
        }
    ],
    "@type":
    [
        "Thing",
        "MoSense"
    ],
    "actions":
    {
        "blink":
        {
            "forms":
            [
                {
                    "contentType": "application/json",
                    "href": "mqtts://mqtt.motius.io:8883/things/DEVBOARDBC:DD:C2:2D:C8:31/actions/blink",
                    "op":
                    [
                        "invokeaction"
                    ]
                }
            ],
            "idempotent": false,
            "input":
            {
                "type": "boolean"
            },
            "safe": false,
            "title": "Blink NeoPixel LED in Red"
        }
    },
    "description": "Sensor board for environmental data, made by MotiusIO.",
    "events":
    {
        "airQualityCritical":
        {
            "data":
            {
                "type": "boolean"
            },
            "description": "[FAKED FOR NOW] The Edge AI predicts a critical air quality",
            "forms":
            [
                {
                    "contentType": "application/json",
                    "href": "mqtts://mqtt.motius.io:8883/things/DEVBOARDBC:DD:C2:2D:C8:31/events/airQualityCritical",
                    "op":
                    [
                        "subscribeevent",
                        "unsubscribeevent"
                    ]
                }
            ],
            "title": "Air quality critical"
        }
    },
    "links":
    [
        {
            "href": "https://www.motius.de/",
            "rel": "appendix"
        },
        {
            "href": "http://office.motius.io/",
            "rel": "status"
        },
        {
            "href": "https://www.bosch-sensortec.com/products/environmental-sensors/gas-sensors-bme680/",
            "rel": "external"
        }
    ],
    "security":
    [
        "basic_sc"
    ],
    "securityDefinitions":
    {
        "basic_sc":
        {
            "in": "header",
            "scheme": "basic"
        },
        "no_sc":
        {
            "scheme": "nosec"
        }
    },
    "sensor":
    {
        "forms":
        [
            {
                "contentType": "application/json",
                "href": "mqtts://mqtt.motius.io:8883/things/DEVBOARDBC:DD:C2:2D:C8:31/properties/voc",
                "op":
                [
                    "readproperty",
                    "observeproperty",
                    "unobserveproperty"
                ]
            },
            {
                "@type": "getHistoricData",
                "contentType": "application/json",
                "href": "http://historic.motius.io/things/DEVBOARDBC:DD:C2:2D:C8:31/properties/voc{?from,to}",
                "htv:methodName": "GET",
                "op": "readproperty",
                "security":
                [
                    "no_sc"
                ]
            }
        ],
        "observable": true,
        "readOnly": true,
        "title": "Volatile Organic Compounds from the BME680",
        "type": "number",
        "unit": "ppb",
        "uuid": "e74094ea-fbb3-413a-a03e-077a4a654503"
    },
    "title": "mosense",
    "uuid": "661fae7b-5296-4cf1-ad7d-fff5ef2999e6"
}